{"results":[{"vote_count":2518,"id":299536,"video":false,"vote_average":8.7,"title":"Мстители: Война бесконечности","popularity":699.106559,"poster_path":"\/qIUFg6tzKeK5bUDguonWCAFceNB.jpg","original_language":"en","original_title":"Avengers: Infinity War","genre_ids":[12,878,14,28],"backdrop_path":"\/bOGkgRGdhrBYJSLpXaxhXVstddV.jpg","adult":false,"overview":"Пока Мстители и их союзники продолжают защищать мир от различных опасностей, с которыми не смог бы справиться один супергерой, новая угроза возникает из космоса: Танос. Межгалактический тиран преследует цель собрать все шесть Камней Бесконечности — артефакты невероятной силы, с помощью которых можно менять реальность по своему желанию. Всё, с чем Мстители сталкивались ранее, вело к этому моменту — судьба Земли никогда ещё не была столь неопределённой.","release_date":"2018-05-03"},{"vote_count":231,"id":476926,"video":false,"vote_average":5.5,"title":"Титан","popularity":43.320508,"poster_path":"\/uWLEvZGMmup528mqb5z0mphgwME.jpg","original_language":"en","original_title":"The Titan","genre_ids":[878],"backdrop_path":"\/lvI088LImIcFNwLcniGyKMRbAK7.jpg","adult":false,"overview":"Американский военный принимает участие в грандиозном эксперименте по созданию сверхлюдей, которые после гибели Земли смогут продолжить существование человечества на планете Титан. Внезапно эксперимент по скрещиванию генов человека с инопланетным существом приводит к абсолютно непредсказуемым последствиям.","release_date":"2018-04-19"},{"vote_count":27,"id":396806,"video":false,"vote_average":6.1,"title":"Анон","popularity":35.297311,"poster_path":"\/xhBTO9n3fxy3HJt7WlR9h9vvVmk.jpg","original_language":"en","original_title":"Anon","genre_ids":[878,53],"backdrop_path":"\/1H3vWdrMcaPXmV0sUWM33xpD93o.jpg","adult":false,"overview":"Идеальное общество будущего: режим тотального надзора, отсутствие личной жизни, приватных территорий и гражданских прав. Казалось бы, в полностью контролируемом государстве нет места ошибкам и правонарушениям. Но однажды детектив Сол Фриленд знакомится с девушкой, которая не числится в базах данных. Перед копом приоткрывается дверь преступного мира новой эры…","release_date":"2018-05-10"},{"vote_count":52,"id":460019,"video":false,"vote_average":5.9,"title":"Правда или действие","popularity":34.376324,"poster_path":"\/po4JZAYWs6VIejlSOxOehnUNRaI.jpg","original_language":"en","original_title":"Truth or Dare","genre_ids":[53,27],"backdrop_path":"\/eQ5xu2pQ5Kergubto5PbbUzey28.jpg","adult":false,"overview":"Обычная игра «Правда или действие» превращается в жестокую гонку со смертью, когда к процессу подключается нечто сверхъестественное. Стоит кому-то из участников соврать или не выполнить положенное действие, его ждет жестокая расправа. Кто в итоге сможет выйти победителем в жестокой игре?","release_date":"2018-04-26"},{"vote_count":272,"id":399174,"video":false,"vote_average":7.8,"title":"Остров собак","popularity":26.581521,"poster_path":"\/phspK8CoyEoVWDmxCdU3QzUWf4P.jpg","original_language":"en","original_title":"Isle of Dogs","genre_ids":[12,35,16],"backdrop_path":"\/5YtXsLG9ncjjFyGZjoeV31CGf01.jpg","adult":false,"overview":"История 12-летнего мальчика Атари Кобаяши, опекаемого коррумпированным мэром Кобаяши. Когда по Указу последнего все домашние собаки города Мегасаки изгоняются на громадную свалку, Атари в одиночку отправляется на миниатюрном летательном аппарате на мусорный остров, чтобы найти своего верного пса по прозвищу Спотс. Там на острове вместе со стаей новых друзей-дворняг он начнет эпичное путешествие, которое решит будущую судьбу всей Префектуры.","release_date":"2018-05-03"},{"vote_count":0,"id":440626,"video":false,"vote_average":0,"title":"Собибор","popularity":19.18068,"poster_path":"\/iGTIlhXl8ujIjoLGT92cQ3Lm9vf.jpg","original_language":"ru","original_title":"Собибор","genre_ids":[18,10752,36],"backdrop_path":"\/5KhMpFJdnOAsDmIpT0TINUNDt8L.jpg","adult":false,"overview":"История сопротивления человеческого духа бездушной машине уничтожения. В октябре 1943 года заключённые лагеря Собибор во главе с лейтенантом Красной Армии Александром Печерским поднимают восстание — единственное успешное восстание в нацистском лагере смерти.","release_date":"2018-05-03"},{"vote_count":101,"id":419831,"video":false,"vote_average":6,"title":"Я сражаюсь с великанами","popularity":18.368629,"poster_path":"\/e8hmpus9QvMo2o2dQjbvdzsbeia.jpg","original_language":"en","original_title":"I Kill Giants","genre_ids":[53,18,14],"backdrop_path":"\/lffgWEBiLf9DbDdb86WsGsEcWTg.jpg","adult":false,"overview":"Барбара Торсон — особенная, ее уникальный талант — это возможность видеть мир великанов. И этот мир угрожает людям. Барбаре никто не верит, но она единственная, кто может спасти человечество от исчезновения. Она объявляет великанам войну и готовится к главному сражению в своей жизни.","release_date":"2018-03-29"},{"vote_count":198,"id":395990,"video":false,"vote_average":4.8,"title":"Жажда смерти","popularity":15.640479,"poster_path":"\/w1HDoS3NdOFUv2FxoTxjLTNbVjA.jpg","original_language":"en","original_title":"Death Wish","genre_ids":[28,80,18,53],"backdrop_path":"\/uQqQvmptJLPTcWDrZXn22p7j7s3.jpg","adult":false,"overview":"Добропорядочный семьянин становится настоящей машиной для убийства после того, как уличная банда убивает его жену и калечит дочь.","release_date":"2018-04-05"},{"vote_count":80,"id":434355,"video":false,"vote_average":6.3,"title":"Такси 5","popularity":14.599203,"poster_path":"\/lXeSraLgsLaeXRg6vEHv4tBrXxc.jpg","original_language":"fr","original_title":"Taxi 5","genre_ids":[35,28],"backdrop_path":"\/s9d4lrsjdTp7AT79Q0AesNomt95.jpg","adult":false,"overview":"Полицейскому, которого перевели в полицию Марселя, поручают непростое задание - ему нужно поймать банду итальянских грабителей, которые используют в налетах автомобили Феррари. А помогать ему в этом будет племянник Даниэля...","release_date":"2018-04-26"},{"vote_count":78,"id":437670,"video":false,"vote_average":6.3,"title":"Зачётный препод 3","popularity":13.278691,"poster_path":"\/7mQTPhicLspqoHXxezFohXkGeor.jpg","original_language":"de","original_title":"Fack ju Göhte 3","genre_ids":[35],"backdrop_path":"\/a3Ipy3B4APTPx1ISkls95XSs5fU.jpg","adult":false,"overview":"Классный руководитель Зэк Мюллер получил класс с самыми проблемными подростками в Германии. Ежедневно его ученики придумывают новые пакости. И тут Зэку помогает его криминальное прошлое...","release_date":"2018-04-12"},{"vote_count":3,"id":434986,"video":false,"vote_average":0,"title":"Тело","popularity":9.916686,"poster_path":"\/xOMeBc3IVLqIyVnDDLj9vhAoWiJ.jpg","original_language":"en","original_title":"Replace","genre_ids":[53,27],"backdrop_path":"\/lBaCm1qqMlshOIVuLmr1svF3Wdy.jpg","adult":false,"overview":"Молодая девушка Кира сталкивается со странной болезнью: ее кожа быстро стареет и начинает осыпаться. От этой заразы находится лечение — Кира может заменить собственную кожу чужой, но ей приходится выбирать: погибнуть самой или выжить, погубив кого-то другого.","release_date":"2018-05-03"},{"vote_count":26,"id":429460,"video":false,"vote_average":6.5,"title":"Муза","popularity":9.765585,"poster_path":"\/vlDFEhlBon98itV43QOPCk7r0I7.jpg","original_language":"es","original_title":"Muse","genre_ids":[53,27],"backdrop_path":"\/nes1Z5rUS0No3HtwMBb4MiwNUeF.jpg","adult":false,"overview":"Профессор литературы Самуэль Саломон год назад ушел с работы после трагической смерти подруги. Он страдает от повторяющегося ночного кошмара, в котором видит женщину, зверски убиваемую при странном ритуале. Неожиданно ту же самую женщину, которая появляется каждую ночь в его снах, находят мертвой при тех же самых обстоятельствах. Самуэль пробирается на место преступления и там встречает Рэйчел, которой тоже приснилось это убийство. Пытаясь сделать всё возможное, чтобы разгадать личность таинственной женщины, они попадут в страшный мир, которым управляют фигуры, вдохновляющие художников на протяжении веков — музы.","release_date":"2018-05-10"},{"vote_count":29,"id":465136,"video":false,"vote_average":6.9,"title":"Привидение","popularity":9.710795,"poster_path":"\/4UnME3icxSspwL0UoGZNSyyp7Xs.jpg","original_language":"en","original_title":"Every Day","genre_ids":[18,14,10749],"backdrop_path":"\/7odR5zLsrrls6KIYT9AlES8D4kh.jpg","adult":false,"overview":"Застенчивая Рианнон встречает парня своей мечты. Вот только уже на следующий день выясняется, что он — вовсе не он, а бестелесный дух, который каждый день воплощается в новом теле. Каждый день его ждет новый дом, новая семья и чья-то чужая жизнь, фрагмент которой надо прожить. Каково это влюбиться в того, кто каждый день выглядит по-другому? И что сделать, чтобы больше не расставаться?","release_date":"2018-04-26"},{"vote_count":16,"id":416494,"video":false,"vote_average":6.6,"title":"Статус: Обновлен","popularity":8.229016,"poster_path":"\/fXtlggJ8LQFFDtPDHf1QEbVxDXh.jpg","original_language":"en","original_title":"Status Update","genre_ids":[35,14],"backdrop_path":"\/MM6MxpRnsi5BkXJhWXVhFC0ccr.jpg","adult":false,"overview":"Подростку Кайлу неожиданно попадает в руки новый смартфон с необычным приложением, которое делает реальностью опубликованные им посты. Почти моментально Кайл оказывается в центре внимания, что становится для него настоящим испытанием…","release_date":"2018-05-10"},{"vote_count":56,"id":407439,"video":false,"vote_average":6.4,"title":"Мария Магдалина","popularity":7.449275,"poster_path":"\/4dYafSOvMWXpDRBUroeWBABRXcE.jpg","original_language":"en","original_title":"Mary Magdalene","genre_ids":[18],"backdrop_path":"\/or9m7UUEITgkkJQK1m8fs93eJ9w.jpg","adult":false,"overview":"Мария Магдалина – рассказ об одной из самых загадочных личностей в мировой истории. Бросив вызов предрассудкам своего времени, Мария оставляет близких и присоединяется к группе единомышленников, лидером которых является Иисус из Назарета. Здесь она найдет свое место и окажется на судьбоносной дороге в Иерусалим.","release_date":"2018-04-05"},{"vote_count":51,"id":467660,"video":false,"vote_average":6,"title":"Не в себе","popularity":7.435556,"poster_path":"\/2m34jQco77dTDpOj3uJy1GbyBkC.jpg","original_language":"en","original_title":"Unsane","genre_ids":[27,53],"backdrop_path":"\/dBK5v7cHXMhsQIvIcj50Aj0Gr9Z.jpg","adult":false,"overview":"Девушка покидает родной город, чтобы сбежать от проблемного прошлого и найти новую работу. Но когда она не по своей воле оказывается в психиатрическом учреждении, ей приходится столкнуться со своим самым большим страхом. Но реален ли он, или это — просто плод ее воображения? Героине кажется, что никто не верит ей, а власти не могут или не хотят помочь, поэтому она должна в одиночку противостоять своим страхам.","release_date":"2018-03-29"},{"vote_count":4,"id":375107,"video":false,"vote_average":4,"title":"Папа-мама гусь","popularity":7.421823,"poster_path":"\/mP3XIWURN68WPDp6LeK1ky4UzHD.jpg","original_language":"en","original_title":"Duck Duck Goose","genre_ids":[16],"backdrop_path":"\/xgt7soczqOnzIiP93QOiu4FLUe4.jpg","adult":false,"overview":"Забавный и самовлюбленный неудачник Пэм вечно попадает в дурацкие ситуации, подвергая свое семейство опасности. Однажды он получает травму крыла и падает вниз, где его встречают два маленьких утенка. Пэм берет малышей под свою опеку и отправляется с ними в пешее наполненное испытаниями путешествие.","release_date":"2018-05-01"},{"vote_count":34,"id":340022,"video":false,"vote_average":6.4,"title":"Опасный бизнес","popularity":7.284368,"poster_path":"\/dxeVPklFwng2IowqRPNI4od6aXv.jpg","original_language":"en","original_title":"Gringo","genre_ids":[35,18,28],"backdrop_path":"\/3RGECRrlljo80J0lhFL4Xk1s5jP.jpg","adult":false,"overview":"Дерзкая длинноногая блондинка — она идеально подходит для опасного бизнеса. Однажды одному из ее подчиненных становится известна уникальная формула, за которой гоняется весь мир. Он решает инсценировать собственное похищение и потребовать выкуп у компании. Лучше этому умнику не рассчитывать на помощь своей эффектной начальницы, ведь для корпорации он предпочтительнее мертвый, чем живой.","release_date":"2018-04-19"},{"vote_count":6,"id":332283,"video":false,"vote_average":5.3,"title":"Красавица для чудовища","popularity":6.924068,"poster_path":"\/AnHutc9eDDrVXvlmYFohEougTHq.jpg","original_language":"en","original_title":"Mary Shelley","genre_ids":[18,10749],"backdrop_path":"\/3vp5dMXAzbl5JUoGgVXEBZMJn7i.jpg","adult":false,"overview":"Когда тебе 16 лет и ты влюбляешься, можешь ли ты представить, что жизнь подарит тебе монстра?","release_date":"2018-05-10"},{"vote_count":9,"id":399248,"video":false,"vote_average":7,"title":"Точка невозврата","popularity":6.903964,"poster_path":"\/xYWYsiTlCpnBF2rw2ie1XwKvxGO.jpg","original_language":"en","original_title":"Beirut","genre_ids":[28,53],"backdrop_path":"\/qbVRRq9qhqVxeaFUBJoyyf94JN2.jpg","adult":false,"overview":"Бывший американский дипломат возвращается в Бейрут, чтобы спасти своих старых коллег, попавших в заложники к боевикам.","release_date":"2018-04-19"}],"page":1,"total_results":46,"dates":{"maximum":"2018-05-12","minimum":"2018-03-24"},"total_pages":3}